{
"code": 200,
"meta": {
"pagination": {
"total": 1095,
"pages": 55,
"page": 1,
"limit": 20
}
},
"data": [
{
"id": 323,
"user_id": 307,
"title": "Virgo addo cedo cavus aperiam rem paens vobis vero aequus adficio aestivus denuo tamen rerum.",
"body": "Sol ars voluptas. Atrocitas caterva confero. Vigor video dolorem. Vulpes cubitum ullus. Deludo vitae tunc. Claudeo deserunt tabgo. Teres contego bibo. Volo curatio aetas. Auxilium commemoro nesciunt. Amoveo deprecator sed. Vultuosus tumultus tendo. Tergo totus perspiciatis. Solio modi aspicio. Illo amplus dapifer. Curvo villa laudantium. Videlicet clementia tersus. Delinquo spero pecunia. Valens aveho claustrum.",
"created_at": "2021-02-03T03:50:09.5+05:30",
"updated_at": "2021-02-03T03:50:09.5+05:30"
},
{
"id": 324,
"user_id": 307,
"title": "Viridis aliquam sed degero adsuesco bestia spiritus tantillus coma terra et quis uredo suscipio solus vilis arma.",
"body": "Tergum armarium similique. Advenio stella crux. Eos vorago curto. Anser culpa voluptatem. Canis strenuus quis. Accusator tardus arto. Vulticulus magni acidus. Tricesimus cura appello. Vulpes deorsum et. Depereo adiuvo curis. Ubi sed spiculum. Error atavus antiquus. Thymbra cernuus ipsum. Terga colloco aequitas. Allatus caelestis ut. Quidem balbus cotidie. Excepturi patruus degenero. Defero despirmatio sustineo. Ratione viduata unde. Beneficium tego antea. Spes facere atqui. Velum paens speculum. Maiores voveo tot.",
"created_at": "2021-02-03T03:50:09.51+05:30",
"updated_at": "2021-02-03T03:50:09.51+05:30"
},
{
"id": 325,
"user_id": 308,
"title": "Summisse ocer spero curto cruentus suasoria amicitia desolo acquiro attonbitus solvo ciminatio.",
"body": "Tamisium asper tabernus. Angulus casus turba. Comis adopto exercitationem. Audacia conitor recusandae. Arcus bibo subiungo. Aggredior consequuntur celer. Vel ancilla alienus. Terreo vis thesaurus. Apostolus validus provident. Via volutabrum et. Atrocitas comburo tot. Autus adiuvo deserunt. Vomito succurro praesentium. Deleo casso cubo. Cohaero dolorem vix. Voro tergum utpote. Urbanus torqueo amicitia. Adsuesco agnosco tamisium. In decens alius. Hic volup ulterius. Terga voluptatum explicabo. Depereo urbanus voluptas.",
"created_at": "2021-02-03T03:50:09.523+05:30",
"updated_at": "2021-02-03T03:50:09.523+05:30"
},
{
"id": 326,
"user_id": 310,
"title": "Aut suppellex talis tricesimus amitto synagoga voluptas delinquo vomica ager ater aut valde.",
"body": "Cruciamentum velit volup. Excepturi qui summa. Apto comitatus pax. Sed sustineo qui. Armo statim ancilla. Thermae apostolus molestiae. Tero curso excepturi. Amplitudo suasoria temeritas. Sub substantia creta. Paulatim sperno truculenter. Repudiandae asporto pauci. Demulceo sunt xiphias. Infit ut quia. Abstergo aut varius. Tubineus solvo culpo.",
"created_at": "2021-02-03T03:50:09.537+05:30",
"updated_at": "2021-02-03T03:50:09.537+05:30"
},
{
"id": 327,
"user_id": 310,
"title": "Vesica vulgaris eos vigor vicissitudo suffragium.",
"body": "Turbo angulus colligo. Delectus beatae vis. Bos dolor vomica. Accedo adulatio vulnero. Et vel calcar. Comparo id arto. Odit vesper sono. Curis accusantium dolores. Tergo architecto vicissitudo. Despecto tantillus delicate. Subiungo summisse veritas. Speculum spectaculum comes. Vorax accommodo solum. Quasi dedecor socius. Itaque atrocitas utor. Custodia torrens quis. Cohaero stipes anser. Sed eos ocer. Venio decretum et. Contra atrocitas viridis. Verus sint adipisci. Ademptio atque sono. Quas quaerat vestigium. Valens nobis adsidue. Truculenter temporibus sortitus. Adsidue labore voluptas.",
"created_at": "2021-02-03T03:50:09.543+05:30",
"updated_at": "2021-02-03T03:50:09.543+05:30"
},
{
"id": 328,
"user_id": 312,
"title": "Usque adnuo arbustum vicissitudo convoco amitto quis.",
"body": "Utpote thymum quaerat. Tollo eum est. Carcer adfectus vallum. Omnis tamquam approbo. Vicissitudo ademptio et. Beneficium victus usus. Vilis adhuc sum. Tepidus cumque et. Aeneus apto eveniet. Cervus tego demens. Optio voco vel. Dens qui assumenda. At celebrer cubo. Nostrum acies beatus. Alveus vel video. Dignissimos cribro tergo. Dignissimos depereo audax. Est tutis valetudo. Infit coruscus cur. Confugo absque comburo. Sulum cui victus. Theologus abscido victoria. Cohibeo cubo asperiores. Dolorem unde decet.",
"created_at": "2021-02-03T03:50:09.562+05:30",
"updated_at": "2021-02-03T03:50:09.562+05:30"
},
{
"id": 329,
"user_id": 312,
"title": "Aut curriculum brevis colloco universe velut volutabrum degenero caecus coadunatio tredecim creta angustus.",
"body": "Cursim advenio suus. Conforto conitor victus. Stella peior aduro. Illum uxor consequatur. Fuga calcar tracto. Vita autem dapifer. Ver templum caritas. Solutio colloco stultus. Abduco cunctatio teres. Colligo vester arcesso. Voluptas infit barba. Celebrer ulterius acerbitas. Cupio alveus spiritus. Quo averto adstringo. Attonbitus titulus denuncio. Acsi asperiores conventus. Adultus benevolentia depopulo. Adicio vespillo ubi. Tristis ad viscus. Demens calculus colligo. Ademptio vivo talio. Anser vobis ademptio. Condico absum subito. Vergo ulciscor debeo.",
"created_at": "2021-02-03T03:50:09.573+05:30",
"updated_at": "2021-02-03T03:50:09.573+05:30"
},
{
"id": 330,
"user_id": 313,
"title": "Cogito cogo illo apparatus stillicidium a turbo delinquo sapiente cedo caritas solum carbo ara cognomen pecco thymum nesciunt non.",
"body": "Supra absum uxor. Quo pectus adhaero. Commodi tollo victus. Testimonium conatus possimus. Ver templum ipsum. Coepi derelinquo vulgaris. Thymum adopto venio. Tredecim volutabrum thesis. Vilitas avarus caelestis. Utrum adipisci adeo. Adicio vestigium sapiente. Sumptus adimpleo cursim. Calco adduco tenuis. Amoveo aranea sequi. Tredecim ipsam amitto. Vinum statua ut. Careo somniculosus spectaculum. Vulariter dedico adipisci.",
"created_at": "2021-02-03T03:50:09.593+05:30",
"updated_at": "2021-02-03T03:50:09.593+05:30"
},
{
"id": 331,
"user_id": 314,
"title": "Quidem cohibeo strues aspicio rem socius omnis villa amplus delego varietas ut tepesco ullus vinitor capio.",
"body": "Cotidie credo surculus. Credo eos adipiscor. Cursim enim clarus. Quaerat cornu depono. Eum conicio architecto. Canto aut rerum. Strenuus aspernatur subnecto. Aperte desparatus conduco. Adstringo conicio aptus. Tonsor carcer ait. Celer suus synagoga. Commodi est culpa. Desparatus avaritia averto. Aggero soleo coma. Defaeco vespillo coerceo. Vitiosus solitudo agnosco. Constans teres trans. Cornu cubo armarium. Confero tutis considero. Consequatur sub cubitum. Dapifer defendo vergo. Careo adfero triumphus. Qui utrimque uterque. Autem laboriosam aiunt. Communis urbs numquam. Arcus uberrime decimus. Audio tabula eius. Atrox delinquo dapifer. Sustineo video necessitatibus.",
"created_at": "2021-02-03T03:50:09.607+05:30",
"updated_at": "2021-02-03T03:50:09.607+05:30"
},
{
"id": 332,
"user_id": 314,
"title": "Defendo defigo arx officia utrum derideo.",
"body": "Ventosus suffragium defero. Caput textilis dolores. Argentum derideo cultura. Temeritas abstergo audentia. Caries accommodo voluptatum. Cupiditate degenero vilis. Optio vergo bos. Illo viridis admoveo. Umerus cupressus astrum. Calamitas bos deficio. Suscipit deprecator tot. Annus demoror voluptatem. Spectaculum viriliter mollitia. Depopulo caterva spectaculum. Supellex defaeco curvo. Pecus dolore cauda. Appositus speculum utrimque. Talis cum cognomen. Nihil aestus sublime. Attollo rerum uterque. Cui voluntarius calamitas. Thema ambulo vicissitudo. Sordeo quo curso.",
"created_at": "2021-02-03T03:50:09.612+05:30",
"updated_at": "2021-02-03T03:50:09.612+05:30"
},
{
"id": 333,
"user_id": 315,
"title": "Confugo sublime vergo aqua benevolentia adipisci cupiditate est et dolore vereor.",
"body": "Sophismata capio utilis. Itaque et alioqui. Caput basium adimpleo. Adstringo usque dolor. Vulpes suppellex annus. Vesica curvus quam. Cura vociferor tepidus. Stillicidium thymbra auditor. Commodi capto surgo. Qui adsuesco sortitus. Reprehenderit conatus allatus. Avarus trepide compello. Suadeo tergum vomito. Vado comminor vitae. Candidus sophismata architecto. Allatus comes vestrum. Ut adficio qui. Accendo spiritus culpa. Eveniet vinculum tres. Voluptatem defleo rerum. Volutabrum textilis coerceo. Deludo caelestis vae.",
"created_at": "2021-02-03T03:50:09.626+05:30",
"updated_at": "2021-02-03T03:50:09.626+05:30"
},
{
"id": 334,
"user_id": 315,
"title": "Abscido admitto deinde deporto molestiae sumptus curto despecto cribro complectus audio congregatio aut adduco cognomen velit.",
"body": "Cursus abbas tabernus. Similique sortitus concido. Cum ante aestivus. Decimus conqueror thalassinus. Commodi infit dapifer. Vita ab crastinus. Vilitas tergum arbitro. Tenax vinculum tertius. Adflicto corrumpo thema. Cohors bellum pax. Sunt ater rerum. Cui defleo culpa. Thalassinus condico tubineus. Argumentum theologus credo. Commodi ancilla at. Pauper pecunia texo. Decerno canonicus deprecator.",
"created_at": "2021-02-03T03:50:09.631+05:30",
"updated_at": "2021-02-03T03:50:09.631+05:30"
},
{
"id": 335,
"user_id": 317,
"title": "Viriliter tenuis validus aurum valens conventus cariosus spoliatio arx voluptates sumo harum nesciunt abutor abbas commodo.",
"body": "Ante rerum dicta. Antiquus vilicus auditor. Curiositas tutis victus. Error comburo aetas. Caste absorbeo contabesco. Doloremque et uter. Tubineus auris nam. Vallum usitas sit. Tantillus nostrum acies. Consuasor vinum cogo. Cur quod stipes. Truculenter vulnus terminatio. Ratione una vinitor. Sto demitto angelus. Creo catena cubitum. Tamen curo saepe. Cur terga agnosco. Vero tabula amiculum. Alias collum velut. Audio trucido aspernatur. Atavus doloribus ventito. Cogo aut cultellus. Utor vulpes voluptatem. Deludo nobis amita. Harum cattus timor. Adamo thymum vultuosus. Compello socius quaerat.",
"created_at": "2021-02-03T03:50:09.649+05:30",
"updated_at": "2021-02-03T03:50:09.649+05:30"
},
{
"id": 336,
"user_id": 317,
"title": "Eaque libero decens voluptatem textus quae viscus spiculum copiose sit cupio aufero civitas deinde odio speculum antiquus.",
"body": "Depono enim culpo. Avaritia solum ante. Adicio communis verus. Atrox tripudio adicio. Sponte surculus sumo. Deinde ante suppono. Beatae alter conspergo. Alias super tempore. Velum antepono adimpleo. Spargo agnitio accommodo. Calco thymbra provident. Temeritas claro textor. Tredecim sufficio curvus. Tres tristis enim. Voluptatem sumo thesis. Subvenio corporis cetera. Odit avarus subnecto. Attero cervus summisse. Necessitatibus absorbeo creptio. Ager aro audio. Dens totam succedo. Conicio est caput. Considero vorax absens. Pecco patruus surgo. Turpis velit cibo. Calculus repellendus cupressus.",
"created_at": "2021-02-03T03:50:09.658+05:30",
"updated_at": "2021-02-03T03:50:09.658+05:30"
},
{
"id": 337,
"user_id": 318,
"title": "Tondeo concido voro tamdiu ager voco.",
"body": "Aestas adversus culpa. Commemoro cupio conqueror. Dedecor suasoria addo. Bellicus centum quis. Termes blanditiis aliquid. Confugo turpe et. Conforto et cedo. Delibero vulgus angelus. Texo inflammatio labore. Vitiosus cornu debeo. Tyrannus votum vesco. Curtus volup cupiditate. Consectetur ultra chirographum. Beneficium commemoro rem. Claudeo atrocitas explicabo. Caute absque consuasor. Omnis repudiandae ager.",
"created_at": "2021-02-03T03:50:09.678+05:30",
"updated_at": "2021-02-03T03:50:09.678+05:30"
},
{
"id": 338,
"user_id": 318,
"title": "Antea auctus somnus umbra curriculum vado solvo summisse crux sufficio velit strues tenus sunt abstergo vergo aestas decumbo abscido.",
"body": "Antiquus sto quia. Absens vilicus amplexus. Somnus decretum subiungo. Torrens accipio cado. Officiis a ventus. Vitiosus atque causa. Adipiscor et provident. Vociferor volubilis eveniet. Vomica contabesco vilis. Conitor defessus claustrum. Termes dicta confugo. Absque sint inflammatio. Stella ea viridis. Baiulus totus deprimo. Expedita comminor argentum. Cultura spiculum amaritudo. Voco turba est. Ultra corpus sed. Enim decet conor. Suscipit ustulo tenus. Cohors censura velum. Depopulo auris condico. Crustulum degenero despirmatio. Cruciamentum thermae veniam. Caste sophismata corrigo. Reiciendis tricesimus terminatio. Possimus fugiat est. Canis tumultus pauper.",
"created_at": "2021-02-03T03:50:09.689+05:30",
"updated_at": "2021-02-03T03:50:09.689+05:30"
},
{
"id": 339,
"user_id": 320,
"title": "Stillicidium ventito adstringo consequuntur amplexus suffoco aiunt considero vis solutio viduo comis.",
"body": "Vorago crudelis delinquo. Exercitationem vulariter confugo. Debilito repellendus consequatur. Aspernatur suscipio villa. Torrens pecco collum. Sublime iusto illum. Verumtamen et vero. Triginta crepusculum amplitudo. Sustineo culpo baiulus. Vicissitudo asperiores armo. Bellum abstergo tabula. Et amplus bis. Surculus commodi creber. Auris celo volup. Coniuratio arbor debitis. Qui ager textus. Cogito cariosus cum. Callide audacia despecto. Nostrum culpo quae. Recusandae aqua amiculum. Colloco tamdiu cauda. Inventore tepidus sophismata. Defungo complectus molestiae. Stabilis somnus clamo.",
"created_at": "2021-02-03T03:50:09.713+05:30",
"updated_at": "2021-02-03T03:50:09.713+05:30"
},
{
"id": 340,
"user_id": 321,
"title": "Quia neque defessus atrox defetiscor tergiversatio callide triduana.",
"body": "Eaque doloribus aut. Cunabula thermae bibo. Validus tunc utor. Non et depono. Truculenter ut terminatio. Deleo torrens umerus. Valens demulceo quae. Solium amor deserunt. Suppono aestus victus. Ad sit et. Maxime ubi culpo. Coruscus varietas patria. Tantillus cedo communis. Veniam degusto corroboro. Verto consequatur ab.",
"created_at": "2021-02-03T03:50:09.726+05:30",
"updated_at": "2021-02-03T03:50:09.726+05:30"
},
{
"id": 341,
"user_id": 321,
"title": "Compello adsum tener cedo decretum ambitus admoneo arca accusator ancilla supra dolores tertius et tendo.",
"body": "Statua arma vapulus. Currus vivo aureus. Est turpe tenuis. Brevis utpote totidem. Subito aut vix. Capillus comitatus abeo. Possimus templum somnus. Terminatio quo cunctatio. Quasi crustulum totus. Considero delectus tergo. Benevolentia valeo utpote. Deputo sumptus ascisco. Communis abduco suscipit. Talis error earum. Vomito damno baiulus. Demo carmen viscus. Usitas odio cursus. Tum et decumbo. Verecundia asperiores perspiciatis. Annus tactus agnosco. Ascit fugiat tactus. Ascisco molestiae voluptatem. Sono comburo collum. Ventosus copia depono.",
"created_at": "2021-02-03T03:50:09.737+05:30",
"updated_at": "2021-02-03T03:50:09.737+05:30"
},
{
"id": 342,
"user_id": 323,
"title": "Artificiose bellum coadunatio denego apto capitulus depulso.",
"body": "Blandior denuo ipsum. Sublime fuga depromo. Paulatim suggero adfectus. Aequitas barba adhuc. Civitas audentia voluptatem. Calamitas sit vesco. Vomer amitto vulgaris. Conduco acidus perspiciatis. Charisma delectatio armarium. Abstergo dedecor qui. Corrigo amitto velit. Verumtamen dolorem ver. Clam verecundia volubilis. Tres ars colligo. Deripio admiratio quo. Causa ea tondeo. Tabella tero dolorem. Ter sapiente arbustum. Vilis quas aspernatur. Stella paens substantia. Administratio consequuntur accusantium. Summisse aggero ventito. Cohaero rem vultuosus. Aut et facilis.",
"created_at": "2021-02-03T03:50:09.757+05:30",
"updated_at": "2021-02-03T03:50:09.757+05:30"
}
]
}