{
"code": 200,
"meta": {
"pagination": {
"total": 1086,
"pages": 55,
"page": 1,
"limit": 20
}
},
"data": [
{
"id": 309,
"post_id": 323,
"name": "Gemine Bhat",
"email": "bhat_gemine@denesik.info",
"body": "Iste tenetur ut.",
"created_at": "2021-02-03T03:50:09.502+05:30",
"updated_at": "2021-02-03T03:50:09.502+05:30"
},
{
"id": 310,
"post_id": 323,
"name": "Saroja Dutta MD",
"email": "md_saroja_dutta@crist-hartmann.info",
"body": "Quis eum temporibus. Quo omnis dicta.",
"created_at": "2021-02-03T03:50:09.505+05:30",
"updated_at": "2021-02-03T03:50:09.505+05:30"
},
{
"id": 311,
"post_id": 324,
"name": "Shridevi Desai",
"email": "shridevi_desai@collins.org",
"body": "Adipisci quos illo. Et quia in.",
"created_at": "2021-02-03T03:50:09.513+05:30",
"updated_at": "2021-02-03T03:50:09.513+05:30"
},
{
"id": 312,
"post_id": 328,
"name": "Narendra Shah",
"email": "narendra_shah@kunze.com",
"body": "Consequuntur non et.",
"created_at": "2021-02-03T03:50:09.565+05:30",
"updated_at": "2021-02-03T03:50:09.565+05:30"
},
{
"id": 313,
"post_id": 328,
"name": "Kalyani Gowda Sr.",
"email": "kalyani_sr_gowda@greenfelder-swaniawski.org",
"body": "Numquam nulla id. Voluptatem rerum autem. Fuga ut qui. Itaque harum quibusdam.",
"created_at": "2021-02-03T03:50:09.567+05:30",
"updated_at": "2021-02-03T03:50:09.567+05:30"
},
{
"id": 314,
"post_id": 329,
"name": "Dandapaani Pandey",
"email": "pandey_dandapaani@anderson.co",
"body": "Veritatis excepturi deleniti. Quidem tempora error. Harum amet velit. Incidunt dolorem et.",
"created_at": "2021-02-03T03:50:09.576+05:30",
"updated_at": "2021-02-03T03:50:09.576+05:30"
},
{
"id": 315,
"post_id": 329,
"name": "Kirti Agarwal",
"email": "kirti_agarwal@morar-reinger.org",
"body": "Deleniti hic nam. Dolores est et. Tempore corporis impedit. Sed tempore sit.",
"created_at": "2021-02-03T03:50:09.578+05:30",
"updated_at": "2021-02-03T03:50:09.578+05:30"
},
{
"id": 316,
"post_id": 330,
"name": "Siddarth Menon",
"email": "menon_siddarth@flatley.info",
"body": "Ut repudiandae error. Laborum deserunt quia. Autem error ipsa. Aliquid voluptatem totam.",
"created_at": "2021-02-03T03:50:09.596+05:30",
"updated_at": "2021-02-03T03:50:09.596+05:30"
},
{
"id": 317,
"post_id": 332,
"name": "Abhaya Nair Sr.",
"email": "nair_abhaya_sr@stanton-kreiger.name",
"body": "Aut eos qui. Delectus vitae aut. Iste omnis dicta.",
"created_at": "2021-02-03T03:50:09.615+05:30",
"updated_at": "2021-02-03T03:50:09.615+05:30"
},
{
"id": 318,
"post_id": 335,
"name": "Anuja Malik DO",
"email": "anuja_malik_do@schmidt.org",
"body": "Voluptas velit dolorem. Quia molestias illo. Iste pariatur aliquam. Cupiditate est est.",
"created_at": "2021-02-03T03:50:09.652+05:30",
"updated_at": "2021-02-03T03:50:09.652+05:30"
},
{
"id": 319,
"post_id": 336,
"name": "Devika Ahuja",
"email": "ahuja_devika@jacobson-schroeder.org",
"body": "Autem quia et. Qui nemo impedit. Sed quo ex. Suscipit qui magnam.",
"created_at": "2021-02-03T03:50:09.661+05:30",
"updated_at": "2021-02-03T03:50:09.661+05:30"
},
{
"id": 320,
"post_id": 336,
"name": "Bhaaswar Khatri JD",
"email": "khatri_jd_bhaaswar@gerhold.name",
"body": "Dicta et repudiandae. Aspernatur ipsam at. Incidunt necessitatibus odio. Excepturi qui facilis.",
"created_at": "2021-02-03T03:50:09.664+05:30",
"updated_at": "2021-02-03T03:50:09.664+05:30"
},
{
"id": 321,
"post_id": 337,
"name": "Dr. Aalok Bhat",
"email": "aalok_dr_bhat@wisozk-auer.io",
"body": "Quia laboriosam amet. Tenetur autem nesciunt.",
"created_at": "2021-02-03T03:50:09.681+05:30",
"updated_at": "2021-02-03T03:50:09.681+05:30"
},
{
"id": 322,
"post_id": 337,
"name": "Kanak Nayar",
"email": "nayar_kanak@hessel-ratke.biz",
"body": "Qui enim ducimus.",
"created_at": "2021-02-03T03:50:09.683+05:30",
"updated_at": "2021-02-03T03:50:09.683+05:30"
},
{
"id": 323,
"post_id": 339,
"name": "Ahilya Kaur",
"email": "kaur_ahilya@mills.com",
"body": "Quia temporibus harum. Vel aperiam culpa. Qui debitis voluptatem.",
"created_at": "2021-02-03T03:50:09.716+05:30",
"updated_at": "2021-02-03T03:50:09.716+05:30"
},
{
"id": 324,
"post_id": 340,
"name": "Kin Chattopadhyay",
"email": "chattopadhyay_kin@gislason-kessler.co",
"body": "Quis velit dolorem.",
"created_at": "2021-02-03T03:50:09.729+05:30",
"updated_at": "2021-02-03T03:50:09.729+05:30"
},
{
"id": 325,
"post_id": 340,
"name": "Bhuvanesh Jain",
"email": "jain_bhuvanesh@collins.biz",
"body": "Modi qui odit. Culpa perferendis quasi. Officiis veritatis fugit. Voluptates aut velit.",
"created_at": "2021-02-03T03:50:09.731+05:30",
"updated_at": "2021-02-03T03:50:09.731+05:30"
},
{
"id": 326,
"post_id": 343,
"name": "Fr. Vasudev Agarwal",
"email": "agarwal_vasudev_fr@ward-haag.io",
"body": "Quas excepturi perferendis. Eveniet quod temporibus. Fugiat quas dolorem.",
"created_at": "2021-02-03T03:50:09.766+05:30",
"updated_at": "2021-02-03T03:50:09.766+05:30"
},
{
"id": 327,
"post_id": 344,
"name": "Keerti Pothuvaal II",
"email": "pothuvaal_ii_keerti@gottlieb.io",
"body": "Ratione magni consectetur. Consequatur aut aliquam. Impedit magnam ducimus. Cumque dicta error.",
"created_at": "2021-02-03T03:50:09.777+05:30",
"updated_at": "2021-02-03T03:50:09.777+05:30"
},
{
"id": 328,
"post_id": 344,
"name": "Vasanti Patil",
"email": "vasanti_patil@vonrueden-lindgren.net",
"body": "Possimus totam iusto. Eum ipsa deleniti.",
"created_at": "2021-02-03T03:50:09.779+05:30",
"updated_at": "2021-02-03T03:50:09.779+05:30"
}
]
}