{
"code": 200,
"meta": {
"pagination": {
"total": 1609,
"pages": 81,
"page": 1,
"limit": 20
}
},
"data": [
{
"id": 433,
"user_id": 305,
"title": "Ambulo amita ubi viridis et summopere adiuvo cena benevolentia tardus.",
"completed": false,
"created_at": "2021-02-03T03:50:09.483+05:30",
"updated_at": "2021-02-03T03:50:09.483+05:30"
},
{
"id": 434,
"user_id": 305,
"title": "Cernuus ultra ambitus balbus clam confido deprimo cibus eum.",
"completed": false,
"created_at": "2021-02-03T03:50:09.485+05:30",
"updated_at": "2021-02-03T03:50:09.485+05:30"
},
{
"id": 435,
"user_id": 306,
"title": "Adulatio fugit voluptas adsidue inventore vulnus trado substantia.",
"completed": true,
"created_at": "2021-02-03T03:50:09.49+05:30",
"updated_at": "2021-02-03T03:50:09.49+05:30"
},
{
"id": 436,
"user_id": 306,
"title": "Dolorem comes ulciscor dolores cunae sollicito coniecto baiulus virtus vomito explicabo.",
"completed": false,
"created_at": "2021-02-03T03:50:09.492+05:30",
"updated_at": "2021-02-03T03:50:09.492+05:30"
},
{
"id": 437,
"user_id": 307,
"title": "Deficio bellum caelum voluntarius arbustum usus.",
"completed": true,
"created_at": "2021-02-03T03:50:09.515+05:30",
"updated_at": "2021-02-03T03:50:09.515+05:30"
},
{
"id": 438,
"user_id": 308,
"title": "Barba amoveo aro aut tardus adiuvo synagoga quasi addo urbanus.",
"completed": false,
"created_at": "2021-02-03T03:50:09.525+05:30",
"updated_at": "2021-02-03T03:50:09.525+05:30"
},
{
"id": 439,
"user_id": 309,
"title": "Harum cupiditate derideo acervus ubi et.",
"completed": true,
"created_at": "2021-02-03T03:50:09.53+05:30",
"updated_at": "2021-02-03T03:50:09.53+05:30"
},
{
"id": 440,
"user_id": 310,
"title": "Patrocinor crastinus cinis theca cohaero aestivus conatus.",
"completed": true,
"created_at": "2021-02-03T03:50:09.545+05:30",
"updated_at": "2021-02-03T03:50:09.545+05:30"
},
{
"id": 441,
"user_id": 310,
"title": "Provident uxor depromo conitor temptatio iusto qui autus.",
"completed": false,
"created_at": "2021-02-03T03:50:09.547+05:30",
"updated_at": "2021-02-03T03:50:09.547+05:30"
},
{
"id": 442,
"user_id": 311,
"title": "Recusandae currus defleo desparatus ante demum voluptatem.",
"completed": true,
"created_at": "2021-02-03T03:50:09.552+05:30",
"updated_at": "2021-02-03T03:50:09.552+05:30"
},
{
"id": 443,
"user_id": 311,
"title": "Coadunatio natus qui animadverto triginta.",
"completed": false,
"created_at": "2021-02-03T03:50:09.554+05:30",
"updated_at": "2021-02-03T03:50:09.554+05:30"
},
{
"id": 444,
"user_id": 312,
"title": "Versus tergiversatio ipsum pectus vita demum adhuc atavus.",
"completed": true,
"created_at": "2021-02-03T03:50:09.58+05:30",
"updated_at": "2021-02-03T03:50:09.58+05:30"
},
{
"id": 445,
"user_id": 312,
"title": "Avaritia sufficio vespillo venustas vitiosus.",
"completed": true,
"created_at": "2021-02-03T03:50:09.582+05:30",
"updated_at": "2021-02-03T03:50:09.582+05:30"
},
{
"id": 446,
"user_id": 312,
"title": "Repudiandae sit denuncio voluntarius uter baiulus casso vobis.",
"completed": true,
"created_at": "2021-02-03T03:50:09.584+05:30",
"updated_at": "2021-02-03T03:50:09.584+05:30"
},
{
"id": 447,
"user_id": 313,
"title": "Aperiam corrupti arcus caelum autem virgo facilis vox sollicito.",
"completed": true,
"created_at": "2021-02-03T03:50:09.598+05:30",
"updated_at": "2021-02-03T03:50:09.598+05:30"
},
{
"id": 448,
"user_id": 314,
"title": "Cultura optio tantum tabernus vestigium adstringo thalassinus circumvenio tergo damnatio crepusculum.",
"completed": false,
"created_at": "2021-02-03T03:50:09.618+05:30",
"updated_at": "2021-02-03T03:50:09.618+05:30"
},
{
"id": 449,
"user_id": 316,
"title": "Terror altus temptatio totidem amplitudo aegrotatio tribuo.",
"completed": false,
"created_at": "2021-02-03T03:50:09.637+05:30",
"updated_at": "2021-02-03T03:50:09.637+05:30"
},
{
"id": 450,
"user_id": 316,
"title": "Cumque aestivus certus taedium voveo turba porro.",
"completed": false,
"created_at": "2021-02-03T03:50:09.638+05:30",
"updated_at": "2021-02-03T03:50:09.638+05:30"
},
{
"id": 451,
"user_id": 316,
"title": "Spes officia tum thesis ocer.",
"completed": true,
"created_at": "2021-02-03T03:50:09.64+05:30",
"updated_at": "2021-02-03T03:50:09.64+05:30"
},
{
"id": 452,
"user_id": 317,
"title": "Delinquo vitae aggredior nemo porro auditor.",
"completed": false,
"created_at": "2021-02-03T03:50:09.666+05:30",
"updated_at": "2021-02-03T03:50:09.666+05:30"
}
]
}